{
  "title": "Users",
  "model": "Users",
  "searchExpression": "indexof(alternateName, '${text}') ge 0 or indexof(name, '${text}') ge 0",
  "selectable": true,
  "multipleSelect": true,
  "columns": [
    {
      "name":"id",
      "property": "id",
      "hidden": true
    },
    {
      "name":"name",
      "property": "name",
      "title":"Name"
    },
    {
      "name":"alternateName",
      "property": "alternateName",
      "title":"alternateName"
    }
  ],
  "criteria": [

  ],
  "searches": [

  ],
  "defaults":{
    "filter": "enabled eq 1"
  },
  "paths" : [

  ]
}
