{
  "model": "Users",
  "settings": {
    "i18n": {
      "el": {
        "User Edit": "Επεξεργασία Χρήστη",
        "Active User": "Ενεργός Χρήστης",
        "Edit the name of this user.": "Ορίστε το όνομα χρήστη.",
        "Edit fullname of this user": "Ορίστε το ονοματεπώνυμο του χρήστη.",
        "Edit the description of this user.": "Ορίστε την περιγραφή του χρήστη.",
        "Select if the user will be enabled.": "Επιλέξτε εάν ο χρήστης θα είναι ενεργός.",
        "Fullname" : "Ονοματεπώνυμο",
        "Name" : "Όνομα Χρήστη"
      }
    }
  },
  "components": [
    {
      "legend": "User Edit",
      "key": "fieldSet",
      "type": "fieldset",
      "input": false,
      "label": "User Edit",
      "components": [
        {
          "columns": [
            {
              "components": [
                {
                  "label": "Name",
                  "labelPosition": "top",
                  "widget": {
                    "type": "input"
                  },
                  "validate": {
                    "required": true
                  },
                  "key": "name",
                  "disabled": true,
                  "type": "textfield",
                  "input": true
                }
              ],
              "width": 6
            },
            {
              "components": [
                {
                  "label": "Fullname",
                  "labelPosition": "top",
                  "widget": {
                    "type": "input"
                  },
                  "validate": {
                    "required": true
                  },
                  "key": "alternateName",
                  "type": "textfield",
                  "description": "Edit fullname of this user",
                  "input": true
                }
              ],
              "width": 6
            },
            {
              "components": [
                {
                  "label": "Description",
                  "labelPosition": "top",
                  "widget": {
                    "type": "input"
                  },
                  "validate": {
                    "required": false
                  },
                  "key": "description",
                  "type": "textfield",
                  "description": "Edit the description of this user.",
                  "input": true
                }
              ],
              "width": 12
            },
            {
              "components": [
                {
                  "label": "Active User",
                  "labelPosition": "top",
                  "searchEnabled": false,
                  "data": {
                    "values": [
                      {
                        "label": "No",
                        "value": "false"
                      },
                      {
                        "label": "Yes",
                        "value": "true"
                      }
                    ]
                  },
                  "key": "enabled",
                  "dataType": "boolean",
                  "type": "select",
                  "input": true,
                  "validate": {
                    "required": true
                  }
                }
              ],
              "width": 6
            }
          ],
          "customClass": "text-dark",
          "hideLabel": true,
          "type": "columns",
          "input": false
        }
      ]
    },
    {
      "type": "button",
      "theme": "btn btn-indigo",
      "label": "Submit",
      "key": "submit",
      "disableOnInvalid": true,
      "input": true
    }
  ]
}

